{"success":true,"data":[{"_id":"6a3172bd392cb9a60f74c5c9","userId":{"_id":"6a3172b9392cb9a60f74c593","phone":"+919910000096","email":"customer96@gmail.com","isActive":true},"firstName":"Urvashi","lastName":"Jain","phone":"+919910000096","email":"customer96@gmail.com","subscriptionStatus":"none","totalBookings":21,"totalSpent":882,"totalCleanings":24,"cleaningBalance":0,"__v":0,"createdAt":"2026-06-16T15:58:53.182Z","updatedAt":"2026-06-16T15:58:53.182Z"}],"pagination":{"page":1,"limit":1,"total":100,"totalPages":100,"hasNextPage":true,"hasPrevPage":false}}